{
  "aurora":{
    "databases":["my_db"],
    "my_db":{
      "employees":{
        "batch_size":"10000",
        "column_name":"emp_no",
        "column_type":"INT",
        "start_value":"10001",
        "table_load_type":"full-load"
        },
      "departments":{
        "batch_size":"10000",
        "column_name":"dept_no",
        "column_type":"STRING",
        "start_value":"d001",
        "table_load_type":"full-load"
        },

      "dept_manager":{
        "batch_size":"10000",
        "column_name":"dept_no",
        "column_type":"STRING",
        "start_value":"d001",
        "table_load_type":"full-load"
        },
      "dept_emp":{
        "batch_size":"10000",
        "column_name":"emp_no",
        "column_type":"INT",
        "start_value":"10001",
        "table_load_type":"full-load"
        },
      "titles":{
        "batch_size":"10000",
        "column_name":"emp_no",
        "column_type":"INT",
        "start_value":"10001",
        "table_load_type":"full-load"
        },
      "salaries":{
        "batch_size":"100000",
        "column_name":"from_date",
        "column_type":"DATE",
        "start_value":"1986-06-26",
        "table_load_type":"full-load"
        }
      }
    }
}